…
## Usage

``` r
library(I14Y)
```

### Get concepts and codelists

You can get the full concept public catalog with
`i14y_search_concept()`:

``` r
i14y_search_concept()
#> # A tibble: 604 × 32
#>    accessRights businessEvents conceptValueType id        identifiers lifeEvents
#>    <lgl>        <list>         <chr>            <chr>     <list>      <list>    
#>  1 NA           <list [0]>     CodeList         08db7950… <chr [1]>   <list [0]>
#>  2 NA           <list [0]>     CodeList         08db7950… <chr [1]>   <list [0]>
#>  3 NA           <list [0]>     CodeList         08db7950… <chr [1]>   <list [0]>
#>  4 NA           <list [0]>     CodeList         08db7950… <chr [1]>   <list [0]>
#>  5 NA           <list [0]>     CodeList         08db7951… <chr [1]>   <list [0]>
#>  6 NA           <list [0]>     CodeList         08db7951… <chr [1]>   <list [0]>
#>  7 NA           <list [0]>     CodeList         08db7951… <chr [1]>   <list [0]>
#>  8 NA           <list [0]>     CodeList         08db7951… <chr [1]>   <list [0]>
#>  9 NA           <list [0]>     CodeList         08db7951… <chr [1]>   <list [0]>
#> 10 NA           <list [0]>     CodeList         08db7951… <chr [1]>   <list [0]>
#> # ℹ 594 more rows
#> # ℹ 26 more variables: publicationLevel <chr>, publicationLevelProposal <lgl>,
#> #   registrationStatus <chr>, registrationStatusProposal <chr>, status <chr>,
#> #   structure <lgl>, themes <list>, type <chr>, validFrom <chr>, validTo <chr>,
#> #   version <chr>, description.de <chr>, description.en <chr>,
#> #   description.fr <chr>, description.it <chr>, description.rm <chr>,
#> #   publisherName.de <chr>, publisherName.en <chr>, publisherName.fr <chr>, …
```
…
As showed in the `conceptType` column, some concepts have the type
“CodeList”. You can get the codelist (i.e. the “content”) of a concept
using `i14y_get_codelist()`, with the value from the `id` column.

``` r
i14y_get_codelist(
  id = "08d94604-e058-62a2-aa25-53f84b974201" # for DV_NOGA_DIVISION
)
#> # A tibble: 88 × 48
#>    Code  ParentCode Name_de       Name_fr Name_it Name_rm Name_en Description_de
#>    <chr> <lgl>      <chr>         <chr>   <chr>   <lgl>   <chr>   <lgl>         
#>  1 01    NA         Landwirtscha… Cultur… Produz… NA      Crop a… NA            
#>  2 02    NA         Forstwirtsch… Sylvic… Silvic… NA      Forest… NA            
#>  3 03    NA         Fischerei un… Pêche … Pesca … NA      Fishin… NA            
#>  4 05    NA         Kohlenbergbau Extrac… Estraz… NA      Mining… NA            
#>  5 06    NA         Gewinnung vo… Extrac… Estraz… NA      Extrac… NA            
#>  6 07    NA         Erzbergbau    Extrac… Estraz… NA      Mining… NA            
#>  7 08    NA         Gewinnung vo… Autres… Altre … NA      Other … NA            
#>  8 09    NA         Erbringung v… Servic… Attivi… NA      Mining… NA            
#>  9 10    NA         Herstellung … Indust… Indust… NA      Manufa… NA            
#> 10 11    NA         Getränkehers… Fabric… Produz… NA      Manufa… NA            
#> # ℹ 78 more rows
#> # ℹ 40 more variables: Description_fr <lgl>, Description_it <lgl>,
#> #   Description_rm <lgl>, Description_en <lgl>, Annotation_ABBREV_Type <chr>,
#> #   Annotation_ABBREV_Title <lgl>, Annotation_ABBREV_URI <lgl>,
#> #   Annotation_ABBREV_Identifier <lgl>, Annotation_ABBREV_Text_de <chr>,
#> #   Annotation_ABBREV_Text_fr <chr>, Annotation_ABBREV_Text_it <chr>,
#> #   Annotation_ABBREV_Text_rm <lgl>, Annotation_ABBREV_Text_en <chr>, …
```
…
income_by_job_and_gender <- BFS::bfs_get_data(
  number_bfs = "px-x-0304010000_201", 
  language = "de",
  query = list(
    Jahr = "2022", 
    Geschlecht = c("1", "2"),
    Wirtschaftsabteilung = income_by_job_and_gender_meta$values[[3]],
    'Zentralwert und andere Perzentile' = "1"
  )
)

income_by_job_and_gender
#> # A tibble: 6,560 × 7
#>    Jahr  Grossregion Wirtschaftsabteilung       `Berufliche Stellung` Geschlecht
#>    <chr> <chr>       <chr>                      <chr>                 <chr>     
#>  1 2022  Schweiz     Wirtschaftsabteilung - To… Berufliche Stellung … Frauen    
#>  2 2022  Schweiz     Wirtschaftsabteilung - To… Berufliche Stellung … Männer    
#>  3 2022  Schweiz     Wirtschaftsabteilung - To… Oberes und mittleres… Frauen    
#>  4 2022  Schweiz     Wirtschaftsabteilung - To… Oberes und mittleres… Männer    
#>  5 2022  Schweiz     Wirtschaftsabteilung - To… Unteres Kader         Frauen    
#>  6 2022  Schweiz     Wirtschaftsabteilung - To… Unteres Kader         Männer    
#>  7 2022  Schweiz     Wirtschaftsabteilung - To… Verantwortlich für d… Frauen    
#>  8 2022  Schweiz     Wirtschaftsabteilung - To… Verantwortlich für d… Männer    
#>  9 2022  Schweiz     Wirtschaftsabteilung - To… Ohne Kaderfunktion    Frauen    
#> 10 2022  Schweiz     Wirtschaftsabteilung - To… Ohne Kaderfunktion    Männer    
#> # ℹ 6,550 more rows
#> # ℹ 2 more variables: `Zentralwert und andere Perzentile` <chr>,
#> #   `Monatlicher Bruttolohn` <dbl>
```
…
noga_division <- i14y_get_codelist(
  id = "08d94604-e058-62a2-aa25-53f84b974201" # for DV_NOGA_DIVISION
) |>
  mutate(Code = as.numeric(Code))

income_by_job_and_gender |>
  filter(!str_detect(Wirtschaftsabteilung, "Sektor")) |> # remove sectors
  mutate(Code = readr::parse_number(Wirtschaftsabteilung)) |> # extract code
  left_join(noga_division, by = "Code") |>
  select(Wirtschaftsabteilung, Name_en, Name_fr, Name_it)
#> # A tibble: 6,400 × 4
#>    Wirtschaftsabteilung         Name_en Name_fr Name_it
#>    <chr>                        <chr>   <chr>   <chr>  
#>  1 Wirtschaftsabteilung - Total <NA>    <NA>    <NA>   
#>  2 Wirtschaftsabteilung - Total <NA>    <NA>    <NA>   
#>  3 Wirtschaftsabteilung - Total <NA>    <NA>    <NA>   
#>  4 Wirtschaftsabteilung - Total <NA>    <NA>    <NA>   
#>  5 Wirtschaftsabteilung - Total <NA>    <NA>    <NA>   
#>  6 Wirtschaftsabteilung - Total <NA>    <NA>    <NA>   
#>  7 Wirtschaftsabteilung - Total <NA>    <NA>    <NA>   
#>  8 Wirtschaftsabteilung - Total <NA>    <NA>    <NA>   
#>  9 Wirtschaftsabteilung - Total <NA>    <NA>    <NA>   
#> 10 Wirtschaftsabteilung - Total <NA>    <NA>    <NA>   
#> # ℹ 6,390 more rows
```

### Search and get datasets

You can search in the public catalog for datasets, data services or
public services with `i14y_search_catalog()`:

``` r
i14y_search_catalog()
#> # A tibble: 2,806 × 38
#>    businessEvents conceptValueType id    identifiers lifeEvents publicationLevel
#>    <list>         <chr>            <chr> <list>      <list>     <chr>           
#>  1 <df [0 × 0]>   <NA>             0091… <chr [1]>   <df>       Public          
#>  2 <df [0 × 0]>   <NA>             00b3… <chr [1]>   <df>       Public          
#>  3 <df [0 × 0]>   <NA>             02b4… <chr [1]>   <df>       Public          
#>  4 <df [0 × 0]>   <NA>             02e3… <chr [1]>   <df>       Public          
#>  5 <df [0 × 0]>   <NA>             0466… <chr [1]>   <df>       Public          
#>  6 <df [0 × 0]>   <NA>             0490… <chr [1]>   <df>       Public          
#>  7 <df [0 × 0]>   <NA>             04f0… <chr [1]>   <df>       Public          
#>  8 <df [0 × 0]>   <NA>             05c7… <chr [1]>   <df>       Public          
#>  9 <df [0 × 0]>   <NA>             0623… <chr [1]>   <df>       Public          
#> 10 <df [0 × 0]>   <NA>             0699… <chr [1]>   <df>       Public          
#> # ℹ 2,796 more rows
#> # ℹ 32 more variables: publicationLevelProposal <lgl>,
#> #   registrationStatus <chr>, registrationStatusProposal <chr>, status <chr>,
#> #   structure <chr>, themes <list>, type <chr>, validFrom <chr>, validTo <chr>,
#> #   version <chr>, accessRights.code <chr>, accessRights.uri <chr>,
#> #   accessRights.name.de <chr>, accessRights.name.en <chr>,
#> #   accessRights.name.fr <chr>, accessRights.name.it <chr>, …
```
…
