…
- format:

  string. The format of the export ("csv" or "json").

## Value

a tibble

## Examples

``` r
i14y_get_codelist(
  id = "08d94604-e058-62a2-aa25-53f84b974201" # for DV_NOGA_DIVISION
)
#> # A tibble: 88 × 48
#>    Code  ParentCode Name_de       Name_fr Name_it Name_rm Name_en Description_de
#>    <chr> <lgl>      <chr>         <chr>   <chr>   <lgl>   <chr>   <lgl>         
#>  1 01    NA         Landwirtscha… Cultur… Produz… NA      Crop a… NA            
#>  2 02    NA         Forstwirtsch… Sylvic… Silvic… NA      Forest… NA            
#>  3 03    NA         Fischerei un… Pêche … Pesca … NA      Fishin… NA            
#>  4 05    NA         Kohlenbergbau Extrac… Estraz… NA      Mining… NA            
#>  5 06    NA         Gewinnung vo… Extrac… Estraz… NA      Extrac… NA            
#>  6 07    NA         Erzbergbau    Extrac… Estraz… NA      Mining… NA            
#>  7 08    NA         Gewinnung vo… Autres… Altre … NA      Other … NA            
#>  8 09    NA         Erbringung v… Servic… Attivi… NA      Mining… NA            
#>  9 10    NA         Herstellung … Indust… Indust… NA      Manufa… NA            
#> 10 11    NA         Getränkehers… Fabric… Produz… NA      Manufa… NA            
#> # ℹ 78 more rows
#> # ℹ 40 more variables: Description_fr <lgl>, Description_it <lgl>,
#> #   Description_rm <lgl>, Description_en <lgl>, Annotation_ABBREV_Type <chr>,
#> #   Annotation_ABBREV_Title <lgl>, Annotation_ABBREV_URI <lgl>,
#> #   Annotation_ABBREV_Identifier <lgl>, Annotation_ABBREV_Text_de <chr>,
#> #   Annotation_ABBREV_Text_fr <chr>, Annotation_ABBREV_Text_it <chr>,
#> #   Annotation_ABBREV_Text_rm <lgl>, Annotation_ABBREV_Text_en <chr>, …
```
